OFF
48 38 0
-0.3 -0.7 1
-0.7 -0.3 1
-0.242845 -0.642845 1.11431
-0.642845 -0.242845 1.11431
-1 0 1
-1 -0.3 0.7
-1 -0.7 0.3
-1.11431 -0.242845 0.642845
-1.11431 -0.642845 0.242845
-1 -1 0
-0.7 -1 0.3
-0.3 -1 0.7
-0.642845 -1.11431 0.242845
-0.242845 -1.11431 0.642845
0 -1 1
-0.392376 -0.792376 1.09238
-0.792376 -0.392376 1.09238
-0.335221 -0.735221 1.20669
-0.735221 -0.335221 1.20669
-1.09238 -0.092376 1.09238
-1.09238 -0.392376 0.792376
-1.09238 -0.792376 0.392376
-1.20669 -0.335221 0.735221
-1.20669 -0.735221 0.335221
-1.09238 -1.09238 0.092376
-0.792376 -1.09238 0.392376
-0.392376 -1.09238 0.792376
-0.735221 -1.20669 0.335221
-0.335221 -1.20669 0.735221
-0.092376 -1.09238 1.09238
0.7 0.3 1
0.3 0.7 1
0.639493 1.03949 1.09043
1.03949 0.639493 1.09043
-1 0.7 -0.3
-1 0.3 -0.7
-1.09043 0.639493 -1.03949
-1.09043 1.03949 -0.639493
0.3 -1 -0.7
0.7 -1 -0.3
1.03949 -1.09043 -0.639493
0.639493 -1.09043 -1.03949
0.740825 0.340825 0.91835
0.340825 0.740825 0.91835
-0.91835 0.740825 -0.340825
-0.91835 0.340825 -0.740825
0.340825 -0.91835 -0.740825
0.740825 -0.91835 -0.340825
9 14 11 10 9 6 5 4 1 0
4 15 17 18 16
4 15 0 2 17
4 17 2 3 18
4 18 3 1 16
4 16 1 4 19
4 19 4 5 20
4 20 22 23 21
4 20 5 7 22
4 22 7 8 23
4 23 8 6 21
4 21 6 9 24
4 24 9 10 25
4 25 27 28 26
4 25 10 12 27
4 27 12 13 28
4 28 13 11 26
4 26 11 14 29
4 29 14 0 15
9 15 16 19 20 21 24 25 26 29
4 0 1 31 30
4 32 3 2 33
4 5 6 35 34
4 36 8 7 37
4 10 11 39 38
4 40 13 12 41
4 43 42 30 31
4 43 32 33 42
5 32 43 31 1 3
5 33 2 0 30 42
4 45 44 34 35
4 45 36 37 44
5 36 45 35 6 8
5 37 7 5 34 44
4 47 46 38 39
4 47 40 41 46
5 40 47 39 11 13
5 41 12 10 38 46
