#VRML V2.0 utf8
# Generated by SGAL Version 100001
DEF CONFIG Configuration {
  accumulation Accumulation { enabled TRUE }
}
ColorBackground {
  color 1 1 1 1
}
DEF EXAMINE_NAV NavigationInfo { type [ "EXAMINE" "ANY" ] }
DEF SNAP_KEY SingleKeySensor { key "S" }
DEF SNAP Snapshot {
  fileFormat "png"
  sequence FALSE
  dirName "."
  fileName "simple_tom"
}
Transform {
 rotation 0.45 -0.2 -0.22 -1.7
children [
Shape {
  appearance Appearance {
    material Material {
	 diffuseColor 0.4 0.4 0.8
	  specularColor 0.1 0.1 0.1
	}
  }
  geometry DEF _9399072 IndexedFaceSet {
    coord DEF _9408592 Coordinate {
      point [
        -0,25.9808,30 -0,5.98076,45 15,0,30 3.453,0,45 -3.453,0,45 -15,-0,30 15,0,0 -15,-0,0 -0,25.9808,0 
      ]
    }
    coordIndex [
      1 3 2 0 -1 0 5 4 1 -1 6 7 8 -1 6 8 0 2 -1 8 7 5 0 -1 3 4 5 7 6 2 -1 3 1 4 -1 
    ]
  }
}]
}
ROUTE SNAP_KEY.state TO SNAP.trigger
