#VRML V2.0 utf8
# Generated by SGAL Version 100001
DEF CONFIG Configuration {
  accumulation Accumulation { enabled TRUE }
}
ColorBackground {
  color 1 1 1 1
}
DEF EXAMINE_NAV NavigationInfo { type [ "EXAMINE" "ANY" ] }
DEF SNAP_KEY SingleKeySensor { key "S" }
DEF SNAP Snapshot {
  fileFormat "png"
  sequence FALSE
  dirName "."
  fileName "simple_tom"
}
Transform {
       rotation 0.45 -0.2 -0.22 -1.7
children [
Shape {
  appearance Appearance {
    material Material {
	  diffuseColor 0.4 0.4 0.8
	  specularColor 0.1 0.1 0.1
	}
  }
  geometry DEF _9399072 IndexedFaceSet {
    coord DEF _9408592 Coordinate {
      point [
        -0,25.9808,30 -0,5.98076,45 15,0,30 3.453,0,45 -3.453,0,45 -15,-0,30 15,0,0 -15,-0,0 -0,25.9808,0 
      ]
    }
    coordIndex [
      1 3 2 0 -1 0 5 4 1 -1 6 7 8 -1 6 8 0 2 -1 8 7 5 0 -1 3 4 5 7 6 2 -1 3 1 4 -1 
    ]
  }
}
,
Shape {
  appearance Appearance {
    material Material {
	   diffuseColor 1 0.6 0.3
	  specularColor 0.1 0.1 0.1
	}
  }
  geometry DEF _38271776 IndexedFaceSet {
    coord DEF _38281296 Coordinate {
      point [
        -0,11.9808,40.5 -0,19.9808,34.5 2.18413,13.3427,42.3159 2.18413,21.3427,36.3159 -0,25.9808,30 -4.5,18.1865,30 -10.5,7.79423,30 -6.01321,19.0602,27.379 -12.0132,8.66788,27.379 -15,-0,30 -3.453,0,45 -0,5.98076,45 -2.59408,13.4785,42.4969 -2.59408,21.4785,36.4969 -0.409944,14.8403,44.3128 -0.409944,22.8403,38.3128 -2.59408,27.4785,31.9969 -7.09408,19.6842,31.9969 -13.0941,9.29192,31.9969 -8.60729,20.5579,29.376 -14.6073,10.1656,29.376 -17.5941,1.49769,31.9969 -6.04707,1.49769,46.9969 -2.59408,7.47845,46.9969 6.9171,0,40.5 11.5359,0,34.5 18.6516,-6.13438,35.6189 14.2527,-5.93831,41.2343 -4.5,18.1865,0 -10.5,7.79423,0 -11.2867,8.24845,-11.5818 -5.28673,18.6408,-11.5818 4.94431,0,39.418 9.56311,0,33.418 -2.55144,17.0615,0 -8.55144,6.66923,0 
      ]
    }
    coordIndex [
      11 10 9 6 5 4 1 0 -1 12 14 15 13 -1 12 0 2 14 -1 14 2 3 15 -1 15 3 1 13 -1 13 1 4 16 -1 16 4 5 17 -1 17 19 20 18 -1 17 5 7 19 -1 19 7 8 20 -1 20 8 6 18 -1 18 6 9 21 -1 21 9 10 22 -1 22 10 11 23 -1 23 11 0 12 -1 12 13 16 17 18 21 22 23 -1 0 1 25 24 -1 26 3 2 27 -1 5 6 29 28 -1 30 8 7 31 -1 33 32 24 25 -1 33 26 27 32 -1 26 33 25 1 3 -1 27 2 0 24 32 -1 35 34 28 29 -1 35 30 31 34 -1 30 35 29 6 8 -1 31 7 5 28 34 -1 
    ]
  }
}
]
}
ROUTE SNAP_KEY.state TO SNAP.trigger
