OFF
26 41 0
0 0 3 
1.6 0.4 0 
0.4 1.6 0 
-1.6 -0.4 0 
-0.4 -1.6 0 
0 0 -2 
1 0 -1 
0 1 -1 
-1 0 -1 
0 -1 -1 
1.6 -0.4 0 
-0.4 1.6 0 
-1.6 0.4 0 
0.4 -1.6 0 
2.1 0.15 0 
0.15 2.1 0 
-2.1 -0.15 0 
-0.15 -2.1 0
2.1 -0.15 0 
-0.15 2.1 0 
-2.1 0.15 0 
0.15 -2.1 0
2.5 0 0 
0 2.5 0 
-2.5 0 0 
0 -2.5 0 
3 0 13 10
3 0 3 4
3 0 11 12
3 0 1 2
4 6 7 2 1
4 7 8 12 11
4 8 9 4 3
4 9 6 10 13
4 8 7 6 9
3 10 18 0
3 1 0 14
3 10 6 18
3 1 14 6
3 0 18 22
3 14 0 22
3 18 6 22
3 6 14 22
3 11 0 19
3 2 15 0
3 11 19 7
3 2 7 15
3 19 0 23
3 0 15 23
3 7 19 23
3 15 7 23
3 12 20 0
3 3 0 16
3 12 8 20
3 3 16 8
3 0 20 24
3 16 0 24
3 20 8 24
3 8 16 24
3 13 0 21
3 4 17 0
3 13 21 9
3 4 9 17
3 21 0 25
3 0 17 25
3 9 21 25
3 17 9 25
