#VRML V2.0 utf8
# run: player -W 512 -H 512 fix_overall.wrl
Inline { url ["../common.wrl"] }

DEF SNAP Snapshot {
  fileFormat "png"
  sequence FALSE
  dirName "."
  fileName "vie1"
}

Transform {
  bboxCenter 0.0 0.1 0.0
  bboxSize 2.55 2.55 2.55
  rotation 0 1 0 -1.0471 # 30 deg.
  children [
    Transform {
      #rotation 1 0 0 .5235 # 30 deg.
      children [
        Inline { url ["snub_cube.wrl"] }

        Shape {
          appearance Appearance {
            material Material {
              ambientIntensity 0.2
              diffuseColor 1 0.6 0.3
              specularColor .1 .1 .1
              shininess .5
            }
          }
          geometry DEF FIXTURE IndexedFaceSet {}
        }
       ]
    }
   ]
}

DEF SFG SnappingFixtureGenerator {
  workpiece USE WORKPIECE
  fixture USE FIXTURE
  numberOfFingers 3
  # palmIndex 0
  # subsetIndex 42

  approximate TRUE
}

DEF SUBSET_INCREMENTOR Script {
  eventIn SFBool op
  field SFInt32 index 0
  url "javascript:
    function op(value, timestamp) {
      ++index;
    }"
}

ROUTE TRIGGER_KEY.state TO SFG.trigger

ROUTE WORKPIECE_VISIBLE_KEY.state TO WORKPIECE_SHAPE.visible
ROUTE SNAP_KEY.state TO SNAP.trigger

ROUTE PALM_INCREMENTOR_KEY.state TO PALM_INCREMENTOR.op
ROUTE PALM_INCREMENTOR.indexOut TO SFG.minPalmIndex
ROUTE SFG.palmIndex TO PALM_INCREMENTOR.startIndex
ROUTE SFG.minPalmIndex TO SFG.trigger

ROUTE PALM_INCREMENTOR_KEY.state TO SUBSET_INCREMENTOR.reset
ROUTE SUBSET_INCREMENTOR_KEY.state TO SUBSET_INCREMENTOR.op
ROUTE SUBSET_INCREMENTOR.indexOut TO SFG.minSubsetIndex
ROUTE SFG.subsetIndex TO SUBSET_INCREMENTOR.startIndex
ROUTE SFG.minSubsetIndex TO SFG.trigger

ROUTE SFG.workpieceNumberOfFacets TO PALM_INCREMENTOR.maxIndex
