#VRML V2.0 utf8
# Generated by SGAL Version 100001
DEF WORKPIECE_SHAPE Shape {
  appearance USE APP
  geometry DEF WORKPIECE IndexedFaceSet {
    coord Coordinate {
      point [
        1.6,0,0 1,0,-1 0.16,-1.44,0 0.15,-2.1,0 0,1.6,0 0,1,-1 0,-1,-1 0,-2.5,0 -0.15,-2.1,0 -0.16,-1.44,0 -1,0,-1 -1.6,0,0
      ]
    }
    coordIndex [
      1 5 4 -1 1 4 0 -1 5 10 11 -1 5 11 4 -1 10 6 9 -1 10 9 11 -1 1 0 2 -1 1 2 6 -1 10 5 1 -1 10 1 6 -1 2 3 6 -1 9 6 8 -1 6 3 7 -1 8 6 7 -1 9 8 7 -1 9 7 3 -1 9 3 2 -1 9 2 0 -1 9 0 4 -1 9 4 11 -1
    ]
  }
}
