#VRML V2.0 utf8
# Generated by SGAL Version 100001
DEF CONFIG Configuration {
  accumulation Accumulation { enabled TRUE }
}
ColorBackground {
  color 1 1 1 1
}
DEF EXAMINE_NAV NavigationInfo { type [ "EXAMINE" "ANY" ] }
DEF SNAP_KEY SingleKeySensor { key "S" }
DEF SNAP Snapshot {
  fileFormat "png"
  sequence FALSE
  dirName "."
  fileName "simple_tom"
}
Transform {
  rotation 0.83 -0.5 -0.5 4.85
children [
Shape {
   appearance Appearance {
	material Material {
	  diffuseColor 0.4 0.4 0.8
	  specularColor 0.1 0.1 0.1
	}
      }
  geometry IndexedFaceSet {
    coord Coordinate {
      point [
        27.0357,-14.4591,0.01 27.0357,-14.4591,0 22.1059,21.2444,0.01 22.1059,21.2444,0 13.6733,5.20417e-15,0.01 13.6733,5.20417e-15,0 -5.39695,-30.1806,0.01 -5.39695,-30.1806,0 -13.3735,27.5889,0.01 -13.3735,27.5889,0 -30.3712,-4.19351,0.01 -30.3712,-4.19351,0 
      ]
    }
    coordIndex [
      1 7 5 -1 7 11 5 -1 5 11 3 -1 11 9 3 -1 2 8 4 -1 8 10 4 -1 4 10 0 -1 10 6 0 -1 4 0 5 -1 0 1 5 -1 0 6 1 -1 6 7 1 -1 2 4 3 -1 4 5 3 -1 8 2 9 -1 2 3 9 -1 10 8 11 -1 8 9 11 -1 6 10 7 -1 10 11 7 -1 
    ]
  }
}
]
}
ROUTE SNAP_KEY.state TO SNAP.trigger
