#VRML V2.0 utf8
# Generated by SGAL Version 100001
# run: player -W512 -H512 trunc_asm.wrl
DEF CONFIG Configuration {
  accumulation Accumulation { enabled TRUE }
}
ColorBackground {
  color 1 1 1 1
}
DEF EXAMINE_NAV NavigationInfo { type [ "EXAMINE" "ANY" ] }
DEF SNAP_KEY SingleKeySensor { key "S" }
DEF SNAP Snapshot {
  fileFormat "png"
  sequence FALSE
  dirName "."
  fileName "simple_tom"
}
Transform {
rotation 1 0 0 2
children [
Shape {
 appearance Appearance {
	material Material {
	  diffuseColor 0.4 0.4 0.8
	  specularColor 0.1 0.1 0.1
	}
      }
  geometry IndexedFaceSet
      {
        coord Coordinate
        {
          point
          [
            1.21412 0 1.58931, 0.375185 1.1547 1.58931, -0.982247 0.713644 1.58931, -0.982247 -0.713644 1.58931, 
            0.375185 -1.1547 1.58931, 1.96449 0 0.375185, 0.607062 1.86835 0.375185, -1.58931 1.1547 0.375185, 
            -1.58931 -1.1547 0.375185, 0.607062 -1.86835 0.375185, 1.58931 1.1547 -0.375185, -0.607062 1.86835 -0.375185, 
            -1.96449 0 -0.375185, -0.607062 -1.86835 -0.375185, 1.58931 -1.1547 -0.375185, 0.982247 0.713644 -1.58931, 
            -0.375185 1.1547 -1.58931, -1.21412 0 -1.58931, -0.375185 -1.1547 -1.58931, 0.982247 -0.713644 -1.58931
          ]
        }
        coordIndex
        [
          0,1,2,-1, 0,2,3,-1, 0,3,4,-1, 0,5,10,-1, 0,10,6,-1, 0,6,1,-1, 
          1,6,11,-1, 1,11,7,-1, 1,7,2,-1, 2,7,12,-1, 2,12,8,-1, 2,8,3,-1, 
          3,8,13,-1, 3,13,9,-1, 3,9,4,-1, 4,9,14,-1, 4,14,5,-1, 4,5,0,-1, 
          15,10,5,-1, 15,5,14,-1, 15,14,19,-1, 16,11,6,-1, 16,6,10,-1, 16,10,15,-1, 
          17,12,7,-1, 17,7,11,-1, 17,11,16,-1, 18,13,8,-1, 18,8,12,-1, 18,12,17,-1, 
          19,14,9,-1, 19,9,13,-1, 19,13,18,-1, 19,18,17,-1, 19,17,16,-1, 19,16,15,-1
        ]
      }
}
,
Shape {
   appearance Appearance {
	  material Material {
	  diffuseColor 1 0.6 0.3
	  specularColor 0.1 0.1 0.1
	}
      }
  geometry IndexedFaceSet
      {
        coord Coordinate
        {
          point
          [
            -0.982247 -0.285458 1.58931, -0.982247 0.285458 1.58931, -0.85925 -0.285458 1.8353, -0.85925 0.285458 1.8353, 
            -0.982247 0.713644 1.58931, -1.58931 1.1547 0.375185, -1.96449 0 -0.375185, -1.85194 -0.34641 -0.150074, 
            -1.70186 -0.808291 0.150074, -1.95144 -0.508068 -0.349087, -1.80137 -0.969949 -0.048939, -1.58931 -1.1547 0.375185, 
            -0.982247 -0.713644 1.58931, -1.26338 -0.285458 1.72988, -1.26338 0.285458 1.72988, -1.14039 -0.285458 1.97587, 
            -1.14039 0.285458 1.97587, -1.26338 0.713644 1.72988, -1.87044 1.1547 0.515753, -2.24563 -3.60231e-17 -0.234617, 
            -2.13307 -0.34641 -0.00950625, -1.983 -0.808291 0.290642, -2.23258 -0.508068 -0.208519, -2.08251 -0.969949 0.0916288, 
            -1.87044 -1.1547 0.515753, -1.26338 -0.713644 1.72988, 0.962442 0.34641 1.58931, 0.626867 0.808291 1.58931, 
            1.50529 1.01724 1.77913, 1.83998 0.560609 1.78765, -0.962442 -0.34641 -1.58931, -0.626867 -0.808291 -1.58931, 
            -0.266655 -0.969949 -2.42561, -0.594115 -0.508068 -2.41968, 1.03906 0.390244 1.41381, 0.703485 0.852124 1.41381, 
            -0.798866 -0.23762 -1.58931, -0.463291 -0.699501 -1.58931
          ]
        }
        coordIndex
        [
          12,11,8,-1, 12,8,7,-1, 12,7,6,-1, 12,6,5,-1, 12,5,4,-1, 12,4,1,-1, 
          12,1,0,-1, 13,15,16,-1, 13,16,14,-1, 13,0,2,-1, 13,2,15,-1, 2,3,16,-1, 
          2,16,15,-1, 3,1,14,-1, 3,14,16,-1, 14,1,4,-1, 14,4,17,-1, 4,5,18,-1, 
          4,18,17,-1, 18,5,6,-1, 18,6,19,-1, 19,6,7,-1, 19,7,20,-1, 20,22,23,-1, 
          20,23,21,-1, 7,9,22,-1, 7,22,20,-1, 22,9,10,-1, 22,10,23,-1, 10,8,21,-1, 
          10,21,23,-1, 21,8,11,-1, 21,11,24,-1, 24,11,12,-1, 24,12,25,-1, 25,12,0,-1, 
          25,0,13,-1, 13,14,17,-1, 13,17,18,-1, 13,18,19,-1, 13,19,20,-1, 13,20,21,-1, 
          13,21,24,-1, 13,24,25,-1, 1,27,26,-1, 1,26,0,-1, 28,3,2,-1, 28,2,29,-1, 
          8,31,30,-1, 8,30,7,-1, 10,9,33,-1, 10,33,32,-1, 35,34,26,-1, 35,26,27,-1, 
          28,29,34,-1, 28,34,35,-1, 28,35,27,-1, 28,27,1,-1, 28,1,3,-1, 29,2,0,-1, 
          29,0,26,-1, 29,26,34,-1, 36,30,31,-1, 36,31,37,-1, 37,32,33,-1, 37,33,36,-1, 
          32,37,31,-1, 32,31,8,-1, 32,8,10,-1, 33,9,7,-1, 33,7,30,-1, 33,30,36,-1
        ]
      }
}
]
}
ROUTE SNAP_KEY.state TO SNAP.trigger
