OFF
64 50 0
-0.3 -0.7 -1
-0.7 -0.3 -1
-0.547487 -0.947487 -1
-0.947487 -0.547487 -1
-1 0 -1
-0.7 0.3 -1
-0.3 0.7 -1
-0.947487 0.547487 -1
-0.547487 0.947487 -1
0 1 -1
0.3 0.7 -1
0.7 0.3 -1
0.547487 0.947487 -1
0.947487 0.547487 -1
1 0 -1
0.7 -0.3 -1
0.3 -0.7 -1
0.947487 -0.547487 -1
0.547487 -0.947487 -1
0 -1 -1
-0.3 -0.7 -1.4
-0.7 -0.3 -1.4
-0.547487 -0.947487 -1.4
-0.947487 -0.547487 -1.4
-1 0 -1.4
-0.7 0.3 -1.4
-0.3 0.7 -1.4
-0.947487 0.547487 -1.4
-0.547487 0.947487 -1.4
0 1 -1.4
0.3 0.7 -1.4
0.7 0.3 -1.4
0.547487 0.947487 -1.4
0.947487 0.547487 -1.4
1 0 -1.4
0.7 -0.3 -1.4
0.3 -0.7 -1.4
0.947487 -0.547487 -1.4
0.547487 -0.947487 -1.4
0 -1 -1.4
1.24 -0.76 0
0.76 -1.24 0
1.30058 -1.83156 0.892027
1.83156 -1.30058 0.892027
-0.76 -1.24 0
-1.24 -0.76 0
-1.83156 -1.30058 0.892027
-1.30058 -1.83156 0.892027
-1.24 0.76 0
-0.76 1.24 0
-1.30058 1.83156 0.892027
-1.83156 1.30058 0.892027
0.76 1.24 0
1.24 0.76 0
1.83156 1.30058 0.892027
1.30058 1.83156 0.892027
1.15822 -0.691129 0.225983
0.678216 -1.17113 0.225983
-0.691129 -1.15822 0.225983
-1.17113 -0.678216 0.225983
-1.15822 0.691129 0.225983
-0.678216 1.17113 0.225983
0.691129 1.15822 0.225983
1.17113 0.678216 0.225983
12 19 16 15 14 11 10 9 6 5 4 1 0
4 20 22 23 21
4 20 0 2 22
4 22 2 3 23
4 23 3 1 21
4 21 1 4 24
4 24 4 5 25
4 25 27 28 26
4 25 5 7 27
4 27 7 8 28
4 28 8 6 26
4 26 6 9 29
4 29 9 10 30
4 30 32 33 31
4 30 10 12 32
4 32 12 13 33
4 33 13 11 31
4 31 11 14 34
4 34 14 15 35
4 35 37 38 36
4 35 15 17 37
4 37 17 18 38
4 38 18 16 36
4 36 16 19 39
4 39 19 0 20
12 20 21 24 25 26 29 30 31 34 35 36 39
4 15 16 41 40
4 42 18 17 43
4 0 1 45 44
4 46 3 2 47
4 5 6 49 48
4 50 8 7 51
4 10 11 53 52
4 54 13 12 55
4 57 56 40 41
4 57 42 43 56
5 42 57 41 16 18
5 43 17 15 40 56
4 59 58 44 45
4 59 46 47 58
5 46 59 45 1 3
5 47 2 0 44 58
4 61 60 48 49
4 61 50 51 60
5 50 61 49 6 8
5 51 7 5 48 60
4 63 62 52 53
4 63 54 55 62
5 54 63 53 11 13
5 55 12 10 52 62
