#VRML V2.0 utf8

# Generated by VCGLIB, (C)Copyright 1999-2001 VCG, IEI-CNR

NavigationInfo {
	type [ "EXAMINE", "ANY" ]
}
Transform {
  scale 1 1 1
  translation 0 0 0
  children
  [
    Shape
    {
      geometry IndexedFaceSet
      {
        creaseAngle .5
        solid FALSE
        coord Coordinate
        {
          point
          [
            -0.3 -0.7 -1, -0.7 -0.3 -1, -0.547487 -0.947487 -1, -0.947487 -0.547487 -1, 
            -1 0 -1, -0.7 0.3 -1, -0.3 0.7 -1, -0.947487 0.547487 -1, 
            -0.547487 0.947487 -1, 0 1 -1, 0.3 0.7 -1, 0.7 0.3 -1, 
            0.547487 0.947487 -1, 0.947487 0.547487 -1, 1 0 -1, 0.7 -0.3 -1, 
            0.3 -0.7 -1, 0.947487 -0.547487 -1, 0.547487 -0.947487 -1, 0 -1 -1, 
            -0.3 -0.7 -1.4, -0.7 -0.3 -1.4, -0.547487 -0.947487 -1.4, -0.947487 -0.547487 -1.4, 
            -1 0 -1.4, -0.7 0.3 -1.4, -0.3 0.7 -1.4, -0.947487 0.547487 -1.4, 
            -0.547487 0.947487 -1.4, 0 1 -1.4, 0.3 0.7 -1.4, 0.7 0.3 -1.4, 
            0.547487 0.947487 -1.4, 0.947487 0.547487 -1.4, 1 0 -1.4, 0.7 -0.3 -1.4, 
            0.3 -0.7 -1.4, 0.947487 -0.547487 -1.4, 0.547487 -0.947487 -1.4, 0 -1 -1.4, 
            1.24 -0.76 0, 0.76 -1.24 0, 1.30058 -1.83156 0.892027, 1.83156 -1.30058 0.892027, 
            -0.76 -1.24 0, -1.24 -0.76 0, -1.83156 -1.30058 0.892027, -1.30058 -1.83156 0.892027, 
            -1.24 0.76 0, -0.76 1.24 0, -1.30058 1.83156 0.892027, -1.83156 1.30058 0.892027, 
            0.76 1.24 0, 1.24 0.76 0, 1.83156 1.30058 0.892027, 1.30058 1.83156 0.892027, 
            1.15822 -0.691129 0.225983, 0.678216 -1.17113 0.225983, -0.691129 -1.15822 0.225983, -1.17113 -0.678216 0.225983, 
            -1.15822 0.691129 0.225983, -0.678216 1.17113 0.225983, 0.691129 1.15822 0.225983, 1.17113 0.678216 0.225983
          ]
        }
        coordIndex
        [
          19,16,15,-1, 19,15,14,-1, 19,14,11,-1, 19,11,10,-1, 19,10,9,-1, 19,9,6,-1, 
          19,6,5,-1, 19,5,4,-1, 19,4,1,-1, 19,1,0,-1, 20,22,23,-1, 20,23,21,-1, 
          20,0,2,-1, 20,2,22,-1, 22,2,3,-1, 22,3,23,-1, 23,3,1,-1, 23,1,21,-1, 
          1,4,24,-1, 1,24,21,-1, 4,5,25,-1, 4,25,24,-1, 25,27,28,-1, 25,28,26,-1, 
          25,5,7,-1, 25,7,27,-1, 27,7,8,-1, 27,8,28,-1, 28,8,6,-1, 28,6,26,-1, 
          6,9,29,-1, 6,29,26,-1, 9,10,30,-1, 9,30,29,-1, 30,32,33,-1, 30,33,31,-1, 
          30,10,12,-1, 30,12,32,-1, 32,12,13,-1, 32,13,33,-1, 33,13,11,-1, 33,11,31,-1, 
          11,14,34,-1, 11,34,31,-1, 14,15,35,-1, 14,35,34,-1, 35,37,38,-1, 35,38,36,-1, 
          35,15,17,-1, 35,17,37,-1, 37,17,18,-1, 37,18,38,-1, 38,18,16,-1, 38,16,36,-1, 
          16,19,39,-1, 16,39,36,-1, 19,0,20,-1, 19,20,39,-1, 20,21,24,-1, 20,24,25,-1, 
          20,25,26,-1, 20,26,29,-1, 20,29,30,-1, 20,30,31,-1, 20,31,34,-1, 20,34,35,-1, 
          20,35,36,-1, 20,36,39,-1, 15,16,41,-1, 15,41,40,-1, 42,18,17,-1, 42,17,43,-1, 
          0,1,45,-1, 0,45,44,-1, 46,3,2,-1, 46,2,47,-1, 5,6,49,-1, 5,49,48,-1, 
          50,8,7,-1, 50,7,51,-1, 10,11,53,-1, 10,53,52,-1, 54,13,12,-1, 54,12,55,-1, 
          56,40,41,-1, 56,41,57,-1, 42,43,56,-1, 42,56,57,-1, 42,57,41,-1, 42,41,16,-1, 
          42,16,18,-1, 43,17,15,-1, 43,15,40,-1, 43,40,56,-1, 58,44,45,-1, 58,45,59,-1, 
          46,47,58,-1, 46,58,59,-1, 46,59,45,-1, 46,45,1,-1, 46,1,3,-1, 47,2,0,-1, 
          47,0,44,-1, 47,44,58,-1, 60,48,49,-1, 60,49,61,-1, 50,51,60,-1, 50,60,61,-1, 
          50,61,49,-1, 50,49,6,-1, 50,6,8,-1, 51,7,5,-1, 51,5,48,-1, 51,48,60,-1, 
          62,52,53,-1, 62,53,63,-1, 54,55,62,-1, 54,62,63,-1, 54,63,53,-1, 54,53,11,-1, 
          54,11,13,-1, 55,12,10,-1, 55,10,52,-1, 55,52,62,-1
        ]
      }
      appearance Appearance
      {
        material Material
        {
	       ambientIntensity 0.2
	       diffuseColor 0.9 0.9 0.9
	       specularColor .1 .1 .1
	       shininess .5
        }
      }
    }
  ]
}
