OFF
34 27 0
1.1431 -0.0942809 -0.666667
0.489898 1.03709 -0.666667
1.20909 -0.0561777 -0.882211
0.555895 1.07519 -0.882211
0 1.88562 -0.666667
0 0 2
0.489898 -0.282843 1.2
1.1431 -0.659966 0.133333
0.555895 -0.473359 1.30777
1.20909 -0.850482 0.241105
1.63299 -0.942809 -0.666667
1.35643 0.0288871 -0.579574
0.703231 1.16026 -0.579574
1.42243 0.0669903 -0.795118
0.769228 1.19836 -0.795118
0.213333 2.00879 -0.579574
0.213333 0.123168 2.08709
0.703231 -0.159675 1.28709
1.35643 -0.536798 0.220426
0.769228 -0.350191 1.39486
1.42243 -0.727314 0.328198
1.84633 -0.819641 -0.579574
-0.489898 -0.282843 1.2
-1.1431 -0.659966 0.133333
-1.72911 -0.882611 0.218387
-1.07194 -0.540256 1.26047
-1.1431 -0.0942809 -0.666667
-0.489898 1.03709 -0.666667
-1.07194 1.0083 -0.929515
-1.72911 -0.0883066 -0.90493
-0.43971 -0.145078 1.12811
-1.09291 -0.522202 0.0614394
-1.08951 -0.109984 -0.51321
-0.436316 1.02139 -0.51321
7 10 7 6 5 4 1 0
4 11 13 14 12
4 11 0 2 13
4 13 2 3 14
4 14 3 1 12
4 12 1 4 15
4 15 4 5 16
4 16 5 6 17
4 17 19 20 18
4 17 6 8 19
4 19 8 9 20
4 20 9 7 18
4 18 7 10 21
4 21 10 0 11
7 11 12 15 16 17 18 21
4 6 7 23 22
4 24 9 8 25
4 0 1 27 26
4 28 3 2 29
4 31 30 22 23
4 31 24 25 30
5 24 31 23 7 9
5 25 8 6 22 30
4 33 32 26 27
4 33 28 29 32
5 28 33 27 1 3
5 29 2 0 26 32
