OFF
34 27 0
0.653197 -0.942809 -0.666667
-0.653197 -0.942809 -0.666667
0.653197 -1.17143 -0.666667
-0.653197 -1.17143 -0.666667
-1.63299 -0.942809 -0.666667
0 1.88562 -0.666667
0.489898 1.03709 -0.666667
1.1431 -0.0942809 -0.666667
0.687888 1.1514 -0.666667
1.34108 0.0200286 -0.666667
1.63299 -0.942809 -0.666667
0.653197 -0.942809 -0.927946
-0.653197 -0.942809 -0.927946
0.653197 -1.17143 -0.927946
-0.653197 -1.17143 -0.927946
-1.63299 -0.942809 -0.927946
0 1.88562 -0.927946
0.489898 1.03709 -0.927946
1.1431 -0.0942809 -0.927946
0.687888 1.1514 -0.927946
1.34108 0.0200286 -0.927946
1.63299 -0.942809 -0.927946
-0.489898 -0.282843 1.2
-1.1431 -0.659966 0.133333
-1.40918 -0.734962 0.709758
-0.788079 -0.339307 1.75508
0 1.31993 0.133333
0 0.565685 1.2
-0.100191 0.85215 1.75508
-0.0680941 1.58787 0.709758
-0.449507 -0.151013 1.1125
-1.1027 -0.528136 0.0458338
-0.0942137 1.2147 0.0513764
-0.0942137 0.460455 1.11804
7 10 7 6 5 4 1 0
4 11 13 14 12
4 11 0 2 13
4 13 2 3 14
4 14 3 1 12
4 12 1 4 15
4 15 4 5 16
4 16 5 6 17
4 17 19 20 18
4 17 6 8 19
4 19 8 9 20
4 20 9 7 18
4 18 7 10 21
4 21 10 0 11
7 11 12 15 16 17 18 21
4 0 1 23 22
4 24 3 2 25
4 6 7 27 26
4 28 9 8 29
4 31 30 22 23
4 31 24 25 30
5 24 31 23 1 3
5 25 2 0 22 30
4 33 32 26 27
4 33 28 29 32
5 28 33 27 7 9
5 29 8 6 26 32
