#VRML V2.0 utf8
# Generated by SGAL Version 100001
DEF WORKPIECE_SHAPE Shape {
  appearance Appearance {
    material Material {
      ambientIntensity 0
    }
  }
    geometry DEF WORKPIECE IndexedFaceSet {
    coord Coordinate {
      point [
        0.00904821,0.00188443,7.99999e-05 0.00904821,0.00188443,-0.00632 0.00904821,-0.00671557,7.99999e-05 0.00904821,-0.00671557,-0.00632 0.00903117,0.00201384,7.99999e-05 0.00903117,0.00201384,-0.00632 0.00903117,-0.00684498,7.99999e-05 0.00903117,-0.00684498,-0.00632 0.00898122,0.00213443,7.99999e-05 0.00898122,0.00213443,-0.00632 0.00898122,-0.00696557,7.99999e-05 0.00898122,-0.00696557,-0.00632 0.00890176,0.00223798,7.99999e-05 0.00890176,0.00223798,-0.00632 0.00890176,-0.00706912,7.99999e-05 0.00890176,-0.00706912,-0.00632 0.00879821,0.00231744,7.99999e-05 0.00879821,0.00231744,-0.00632 0.00879821,-0.00714858,7.99999e-05 0.00879821,-0.00714858,-0.00632 0.00867762,0.00236739,7.99999e-05 0.00867762,0.00236739,-0.00632 0.00867762,-0.00719853,7.99999e-05 0.00867762,-0.00719853,-0.00632 0.00854821,0.00238443,7.99999e-05 0.00854821,0.00238443,-0.00632 0.00854821,-0.00721557,7.99999e-05 0.00854821,-0.00721557,-0.00632 0.00728821,0.00638443,-0.00207 0.00728821,0.00638443,-0.00417 0.00728821,0.00636739,-0.00194059 0.00728821,0.00636739,-0.00429941 0.00728821,0.00631744,-0.00182 0.00728821,0.00631744,-0.00442 0.00728821,0.00623798,-0.00171645 0.00728821,0.00623798,-0.00452355 0.00728821,0.00613443,-0.00163699 0.00728821,0.00613443,-0.00460301 0.00728821,0.00601384,-0.00158704 0.00728821,0.00601384,-0.00465296 0.00728821,0.00588443,-0.00157 0.00728821,0.00588443,-0.00467 0.00728821,0.00538443,-0.00312 0.00728821,0.00536228,-0.00295177 0.00728821,0.00536228,-0.00328823 0.00728821,0.00529735,-0.002795 0.00728821,0.00529735,-0.003445 0.00728821,0.00519405,-0.00266038 0.00728821,0.00519405,-0.00357962 0.00728821,0.00505943,-0.00255708 0.00728821,0.00505943,-0.00368292 0.00728821,0.00490266,-0.00249215 0.00728821,0.00490266,-0.00374785 0.00728821,0.00473443,-0.00247 0.00728821,0.00473443,-0.00377 0.00728821,0.0045662,-0.00249215 0.00728821,0.0045662,-0.00374785 0.00728821,0.00440943,-0.00255708 0.00728821,0.00440943,-0.00368292 0.00728821,0.00427481,-0.00266038 0.00728821,0.00427481,-0.00357962 0.00728821,0.00417151,-0.002795 0.00728821,0.00417151,-0.003445 0.00728821,0.00410658,-0.00295177 0.00728821,0.00410658,-0.00328823 0.00728821,0.00408443,-0.00312 0.00728821,0.00238443,-0.00157 0.00728821,0.00238443,-0.00467 0.00678821,0.00638443,-0.00207 0.00678821,0.00638443,-0.00417 0.00678821,0.00636739,-0.00194059 0.00678821,0.00636739,-0.00429941 0.00678821,0.00631744,-0.00182 0.00678821,0.00631744,-0.00442 0.00678821,0.00623798,-0.00171645 0.00678821,0.00623798,-0.00452355 0.00678821,0.00613443,-0.00163699 0.00678821,0.00613443,-0.00460301 0.00678821,0.00601384,-0.00158704 0.00678821,0.00601384,-0.00465296 0.00678821,0.00588443,-0.00157 0.00678821,0.00588443,-0.00467 0.00678821,0.00538443,-0.00312 0.00678821,0.00536228,-0.00295177 0.00678821,0.00536228,-0.00328823 0.00678821,0.00529735,-0.002795 0.00678821,0.00529735,-0.003445 0.00678821,0.00519405,-0.00266038 0.00678821,0.00519405,-0.00357962 0.00678821,0.00505943,-0.00255708 0.00678821,0.00505943,-0.00368292 0.00678821,0.00490266,-0.00249215 0.00678821,0.00490266,-0.00374785 0.00678821,0.00473443,-0.00247 0.00678821,0.00473443,-0.00377 0.00678821,0.0045662,-0.00249215 0.00678821,0.0045662,-0.00374785 0.00678821,0.00440943,-0.00255708 0.00678821,0.00440943,-0.00368292 0.00678821,0.00427481,-0.00266038 0.00678821,0.00427481,-0.00357962 0.00678821,0.00417151,-0.002795 0.00678821,0.00417151,-0.003445 0.00678821,0.00410658,-0.00295177 0.00678821,0.00410658,-0.00328823 0.00678821,0.00408443,-0.00312 0.00678821,0.00238443,-0.00157 0.00678821,0.00238443,-0.00467 0.00579821,0.00238443,7.99999e-05 0.00579821,0.00238443,-0.00632 0.00544821,0.00278443,7.99999e-05 0.00544821,0.00278443,-0.00632 0.00504821,3.44296e-05,7.99999e-05 0.00504821,3.44296e-05,-0.00632 0.00500562,0.000357953,7.99999e-05 0.00500562,0.000357953,-0.00632 0.00500562,-0.000289094,7.99999e-05 0.00500562,-0.000289094,-0.00632 0.00488074,0.000659429,7.99999e-05 0.00488074,0.000659429,-0.00632 0.00488074,-0.00059057,7.99999e-05 0.00488074,-0.00059057,-0.00632 0.00468209,0.000918313,7.99999e-05 0.00468209,0.000918313,-0.00632 0.00468209,-0.000849454,7.99999e-05 0.00468209,-0.000849454,-0.00632 0.00442321,0.00111696,7.99999e-05 0.00442321,0.00111696,-0.00632 0.00442321,-0.0010481,7.99999e-05 0.00442321,-0.0010481,-0.00632 0.00412173,0.00124184,7.99999e-05 0.00412173,0.00124184,-0.00632 0.00412173,-0.00117298,7.99999e-05 0.00412173,-0.00117298,-0.00632 0.00379821,0.00128443,7.99999e-05 0.00379821,0.00128443,-0.00632 0.00379821,-0.00121557,7.99999e-05 0.00379821,-0.00121557,-0.00632 0.00347469,0.00124184,7.99999e-05 0.00347469,0.00124184,-0.00632 0.00347469,-0.00117298,7.99999e-05 0.00347469,-0.00117298,-0.00632 0.00317321,0.00111696,7.99999e-05 0.00317321,0.00111696,-0.00632 0.00317321,-0.0010481,7.99999e-05 0.00317321,-0.0010481,-0.00632 0.00291433,0.000918313,7.99999e-05 0.00291433,0.000918313,-0.00632 0.00291433,-0.000849454,7.99999e-05 0.00291433,-0.000849454,-0.00632 0.00271568,0.000659429,7.99999e-05 0.00271568,0.000659429,-0.00632 0.00271568,-0.00059057,7.99999e-05 0.00271568,-0.00059057,-0.00632 0.0025908,0.000357953,7.99999e-05 0.0025908,0.000357953,-0.00632 0.0025908,-0.000289094,7.99999e-05 0.0025908,-0.000289094,-0.00632 0.00254821,3.44296e-05,7.99999e-05 0.00254821,3.44296e-05,-0.00632 0.00214821,0.00278443,7.99999e-05 0.00214821,0.00278443,-0.00632 0.00179821,0.00238443,7.99999e-05 0.00179821,0.00238443,-0.00632 4.82097e-05,0.00638443,-0.00207 4.82097e-05,0.00638443,-0.00417 4.82097e-05,0.00636739,-0.00194059 4.82097e-05,0.00636739,-0.00429941 4.82097e-05,0.00631744,-0.00182 4.82097e-05,0.00631744,-0.00442 4.82097e-05,0.00623798,-0.00171645 4.82097e-05,0.00623798,-0.00452355 4.82097e-05,0.00613443,-0.00163699 4.82097e-05,0.00613443,-0.00460301 4.82097e-05,0.00601384,-0.00158704 4.82097e-05,0.00601384,-0.00465296 4.82097e-05,0.00588443,-0.00157 4.82097e-05,0.00588443,-0.00467 4.82097e-05,0.00538443,-0.00312 4.82097e-05,0.00536228,-0.00295177 4.82097e-05,0.00536228,-0.00328823 4.82097e-05,0.00529735,-0.002795 4.82097e-05,0.00529735,-0.003445 4.82097e-05,0.00519405,-0.00266038 4.82097e-05,0.00519405,-0.00357962 4.82097e-05,0.00505943,-0.00255708 4.82097e-05,0.00505943,-0.00368292 4.82097e-05,0.00490266,-0.00249215 4.82097e-05,0.00490266,-0.00374785 4.82097e-05,0.00473443,-0.00247 4.82097e-05,0.00473443,-0.00377 4.82097e-05,0.0045662,-0.00249215 4.82097e-05,0.0045662,-0.00374785 4.82097e-05,0.00440943,-0.00255708 4.82097e-05,0.00440943,-0.00368292 4.82097e-05,0.00427481,-0.00266038 4.82097e-05,0.00427481,-0.00357962 4.82097e-05,0.00417151,-0.002795 4.82097e-05,0.00417151,-0.003445 4.82097e-05,0.00410658,-0.00295177 4.82097e-05,0.00410658,-0.00328823 4.82097e-05,0.00408443,-0.00312 4.82097e-05,0.00238443,-0.00157 4.82097e-05,0.00238443,-0.00467 -0.00045179,0.00638443,-0.00207 -0.00045179,0.00638443,-0.00417 -0.00045179,0.00636739,-0.00194059 -0.00045179,0.00636739,-0.00429941 -0.00045179,0.00631744,-0.00182 -0.00045179,0.00631744,-0.00442 -0.00045179,0.00623798,-0.00171645 -0.00045179,0.00623798,-0.00452355 -0.00045179,0.00613443,-0.00163699 -0.00045179,0.00613443,-0.00460301 -0.00045179,0.00601384,-0.00158704 -0.00045179,0.00601384,-0.00465296 -0.00045179,0.00588443,-0.00157 -0.00045179,0.00588443,-0.00467 -0.00045179,0.00538443,-0.00312 -0.00045179,0.00536228,-0.00295177 -0.00045179,0.00536228,-0.00328823 -0.00045179,0.00529735,-0.002795 -0.00045179,0.00529735,-0.003445 -0.00045179,0.00519405,-0.00266038 -0.00045179,0.00519405,-0.00357962 -0.00045179,0.00505943,-0.00255708 -0.00045179,0.00505943,-0.00368292 -0.00045179,0.00490266,-0.00249215 -0.00045179,0.00490266,-0.00374785 -0.00045179,0.00473443,-0.00247 -0.00045179,0.00473443,-0.00377 -0.00045179,0.0045662,-0.00249215 -0.00045179,0.0045662,-0.00374785 -0.00045179,0.00440943,-0.00255708 -0.00045179,0.00440943,-0.00368292 -0.00045179,0.00427481,-0.00266038 -0.00045179,0.00427481,-0.00357962 -0.00045179,0.00417151,-0.002795 -0.00045179,0.00417151,-0.003445 -0.00045179,0.00410658,-0.00295177 -0.00045179,0.00410658,-0.00328823 -0.00045179,0.00408443,-0.00312 -0.00045179,0.00238443,-0.00157 -0.00045179,0.00238443,-0.00467 -0.00095179,-0.00721557,7.99999e-05 -0.00095179,-0.00721557,-0.00632 -0.00145179,-0.00791557,7.99999e-05 -0.00145179,-0.00791557,-0.00632 -0.00295179,-0.00791557,-0.00212 -0.00295179,-0.00791557,-0.00412 -0.00295179,-0.00851557,-0.00212 -0.00295179,-0.00851557,-0.00412 -0.00298586,-0.00877439,-0.00212 -0.00298586,-0.00877439,-0.00412 -0.00308576,-0.00901557,-0.00212 -0.00308576,-0.00901557,-0.00412 -0.00324468,-0.00922268,-0.00212 -0.00324468,-0.00922268,-0.00412 -0.00345179,-0.0093816,-0.00212 -0.00345179,-0.0093816,-0.00412 -0.00369297,-0.0094815,-0.00212 -0.00369297,-0.0094815,-0.00412 -0.00370179,0.00238443,7.99999e-05 -0.00370179,0.00238443,-0.00632 -0.00395179,-0.00951557,-0.00212 -0.00395179,-0.00951557,-0.00412 -0.00405179,0.00278443,7.99999e-05 -0.00405179,0.00278443,-0.00632 -0.00421061,-0.0094815,-0.00212 -0.00421061,-0.0094815,-0.00412 -0.00445179,3.44296e-05,7.99999e-05 -0.00445179,3.44296e-05,-0.00632 -0.00445179,-0.0093816,-0.00212 -0.00445179,-0.0093816,-0.00412 -0.00449438,0.000357953,7.99999e-05 -0.00449438,0.000357953,-0.00632 -0.00449438,-0.000289094,7.99999e-05 -0.00449438,-0.000289094,-0.00632 -0.00461926,0.000659429,7.99999e-05 -0.00461926,0.000659429,-0.00632 -0.00461926,-0.00059057,7.99999e-05 -0.00461926,-0.00059057,-0.00632 -0.0046589,-0.00922268,-0.00212 -0.0046589,-0.00922268,-0.00412 -0.00481782,-0.00901557,-0.00212 -0.00481782,-0.00901557,-0.00412 -0.00481791,0.000918313,7.99999e-05 -0.00481791,0.000918313,-0.00632 -0.00481791,-0.000849454,7.99999e-05 -0.00481791,-0.000849454,-0.00632 -0.00491772,-0.00877439,-0.00212 -0.00491772,-0.00877439,-0.00412 -0.00495179,-0.00791557,-0.00212 -0.00495179,-0.00791557,-0.00412 -0.00495179,-0.00851557,-0.00212 -0.00495179,-0.00851557,-0.00412 -0.00507679,0.00111696,7.99999e-05 -0.00507679,0.00111696,-0.00632 -0.00507679,-0.0010481,7.99999e-05 -0.00507679,-0.0010481,-0.00632 -0.00537827,0.00124184,7.99999e-05 -0.00537827,0.00124184,-0.00632 -0.00537827,-0.00117298,7.99999e-05 -0.00537827,-0.00117298,-0.00632 -0.00570179,0.00128443,7.99999e-05 -0.00570179,0.00128443,-0.00632 -0.00570179,-0.00121557,7.99999e-05 -0.00570179,-0.00121557,-0.00632 -0.00602531,0.00124184,7.99999e-05 -0.00602531,0.00124184,-0.00632 -0.00602531,-0.00117298,7.99999e-05 -0.00602531,-0.00117298,-0.00632 -0.00615179,-0.00791557,7.99999e-05 -0.00615179,-0.00791557,-0.00062 -0.00615179,-0.00791557,-0.00562 -0.00615179,-0.00791557,-0.00632 -0.00632679,0.00111696,7.99999e-05 -0.00632679,0.00111696,-0.00632 -0.00632679,-0.0010481,7.99999e-05 -0.00632679,-0.0010481,-0.00632 -0.00658567,0.000918313,7.99999e-05 -0.00658567,0.000918313,-0.00632 -0.00658567,-0.000849454,7.99999e-05 -0.00658567,-0.000849454,-0.00632 -0.00659588,-0.00612457,7.99999e-05 -0.00659588,-0.00612457,-0.00062 -0.00659588,-0.00612457,-0.00562 -0.00659588,-0.00612457,-0.00632 -0.0067244,-0.00578697,7.99999e-05 -0.0067244,-0.00578697,-0.00062 -0.0067244,-0.00578697,-0.00562 -0.0067244,-0.00578697,-0.00632 -0.00678432,0.000659429,7.99999e-05 -0.00678432,0.000659429,-0.00632 -0.00678432,-0.00059057,7.99999e-05 -0.00678432,-0.00059057,-0.00632 -0.0069092,0.000357953,7.99999e-05 -0.0069092,0.000357953,-0.00632 -0.0069092,-0.000289094,7.99999e-05 -0.0069092,-0.000289094,-0.00632 -0.00692991,-0.00548989,7.99999e-05 -0.00692991,-0.00548989,-0.00062 -0.00692991,-0.00548989,-0.00562 -0.00692991,-0.00548989,-0.00632 -0.00695179,3.44296e-05,7.99999e-05 -0.00695179,3.44296e-05,-0.00632 -0.00720047,-0.00525056,7.99999e-05 -0.00720047,-0.00525056,-0.00062 -0.00720047,-0.00525056,-0.00562 -0.00720047,-0.00525056,-0.00632 -0.00735179,0.00278443,7.99999e-05 -0.00735179,0.00278443,-0.00632 -0.00740179,-0.00648557,7.99999e-05 -0.00740179,-0.00648557,-0.00062 -0.00740179,-0.00648557,-0.00562 -0.00740179,-0.00648557,-0.00632 -0.00742394,-0.00631734,7.99999e-05 -0.00742394,-0.00631734,-0.00062 -0.00742394,-0.00631734,-0.00562 -0.00742394,-0.00631734,-0.00632 -0.00742394,-0.0066538,7.99999e-05 -0.00742394,-0.0066538,-0.00062 -0.00742394,-0.0066538,-0.00562 -0.00742394,-0.0066538,-0.00632 -0.00748887,-0.00616057,7.99999e-05 -0.00748887,-0.00616057,-0.00062 -0.00748887,-0.00616057,-0.00562 -0.00748887,-0.00616057,-0.00632 -0.00748887,-0.00681057,7.99999e-05 -0.00748887,-0.00681057,-0.00062 -0.00748887,-0.00681057,-0.00562 -0.00748887,-0.00681057,-0.00632 -0.00752042,-0.00508284,7.99999e-05 -0.00752042,-0.00508284,-0.00062 -0.00752042,-0.00508284,-0.00562 -0.00752042,-0.00508284,-0.00632 -0.00759217,-0.00602595,7.99999e-05 -0.00759217,-0.00602595,-0.00062 -0.00759217,-0.00602595,-0.00562 -0.00759217,-0.00602595,-0.00632 -0.00759217,-0.00694519,7.99999e-05 -0.00759217,-0.00694519,-0.00062 -0.00759217,-0.00694519,-0.00562 -0.00759217,-0.00694519,-0.00632 -0.00770179,0.00238443,7.99999e-05 -0.00770179,0.00238443,-0.00632 -0.00772679,-0.00592265,7.99999e-05 -0.00772679,-0.00592265,-0.00062 -0.00772679,-0.00592265,-0.00562 -0.00772679,-0.00592265,-0.00632 -0.00772679,-0.00704849,7.99999e-05 -0.00772679,-0.00704849,-0.00062 -0.00772679,-0.00704849,-0.00562 -0.00772679,-0.00704849,-0.00632 -0.00787117,-0.00499648,7.99999e-05 -0.00787117,-0.00499648,-0.00062 -0.00787117,-0.00499648,-0.00562 -0.00787117,-0.00499648,-0.00632 -0.00788356,-0.00585772,7.99999e-05 -0.00788356,-0.00585772,-0.00062 -0.00788356,-0.00585772,-0.00562 -0.00788356,-0.00585772,-0.00632 -0.00788356,-0.00711342,7.99999e-05 -0.00788356,-0.00711342,-0.00062 -0.00788356,-0.00711342,-0.00562 -0.00788356,-0.00711342,-0.00632 -0.00805179,-0.00583557,7.99999e-05 -0.00805179,-0.00583557,-0.00062 -0.00805179,-0.00583557,-0.00562 -0.00805179,-0.00583557,-0.00632 -0.00805179,-0.00713557,7.99999e-05 -0.00805179,-0.00713557,-0.00062 -0.00805179,-0.00713557,-0.00562 -0.00805179,-0.00713557,-0.00632 -0.00822002,-0.00585772,7.99999e-05 -0.00822002,-0.00585772,-0.00062 -0.00822002,-0.00585772,-0.00562 -0.00822002,-0.00585772,-0.00632 -0.00822002,-0.00711342,7.99999e-05 -0.00822002,-0.00711342,-0.00062 -0.00822002,-0.00711342,-0.00562 -0.00822002,-0.00711342,-0.00632 -0.00823241,-0.00499648,7.99999e-05 -0.00823241,-0.00499648,-0.00062 -0.00823241,-0.00499648,-0.00562 -0.00823241,-0.00499648,-0.00632 -0.00837679,-0.00592265,7.99999e-05 -0.00837679,-0.00592265,-0.00062 -0.00837679,-0.00592265,-0.00562 -0.00837679,-0.00592265,-0.00632 -0.00837679,-0.00704849,7.99999e-05 -0.00837679,-0.00704849,-0.00062 -0.00837679,-0.00704849,-0.00562 -0.00837679,-0.00704849,-0.00632 -0.00851141,-0.00602595,7.99999e-05 -0.00851141,-0.00602595,-0.00062 -0.00851141,-0.00602595,-0.00562 -0.00851141,-0.00602595,-0.00632 -0.00851141,-0.00694519,7.99999e-05 -0.00851141,-0.00694519,-0.00062 -0.00851141,-0.00694519,-0.00562 -0.00851141,-0.00694519,-0.00632 -0.00858316,-0.00508284,7.99999e-05 -0.00858316,-0.00508284,-0.00062 -0.00858316,-0.00508284,-0.00562 -0.00858316,-0.00508284,-0.00632 -0.00861471,-0.00616057,7.99999e-05 -0.00861471,-0.00616057,-0.00062 -0.00861471,-0.00616057,-0.00562 -0.00861471,-0.00616057,-0.00632 -0.00861471,-0.00681057,7.99999e-05 -0.00861471,-0.00681057,-0.00062 -0.00861471,-0.00681057,-0.00562 -0.00861471,-0.00681057,-0.00632 -0.00867964,-0.00631734,7.99999e-05 -0.00867964,-0.00631734,-0.00062 -0.00867964,-0.00631734,-0.00562 -0.00867964,-0.00631734,-0.00632 -0.00867964,-0.0066538,7.99999e-05 -0.00867964,-0.0066538,-0.00062 -0.00867964,-0.0066538,-0.00562 -0.00867964,-0.0066538,-0.00632 -0.00870179,-0.00648557,7.99999e-05 -0.00870179,-0.00648557,-0.00062 -0.00870179,-0.00648557,-0.00562 -0.00870179,-0.00648557,-0.00632 -0.00875179,0.00638443,-0.00207 -0.00875179,0.00638443,-0.00417 -0.00875179,0.00636739,-0.00194059 -0.00875179,0.00636739,-0.00429941 -0.00875179,0.00631744,-0.00182 -0.00875179,0.00631744,-0.00442 -0.00875179,0.00623798,-0.00171645 -0.00875179,0.00623798,-0.00452355 -0.00875179,0.00613443,-0.00163699 -0.00875179,0.00613443,-0.00460301 -0.00875179,0.00601384,-0.00158704 -0.00875179,0.00601384,-0.00465296 -0.00875179,0.00588443,-0.00157 -0.00875179,0.00588443,-0.00467 -0.00875179,0.00538443,-0.00312 -0.00875179,0.00536228,-0.00295177 -0.00875179,0.00536228,-0.00328823 -0.00875179,0.00529735,-0.002795 -0.00875179,0.00529735,-0.003445 -0.00875179,0.00519405,-0.00266038 -0.00875179,0.00519405,-0.00357962 -0.00875179,0.00505943,-0.00255708 -0.00875179,0.00505943,-0.00368292 -0.00875179,0.00490266,-0.00249215 -0.00875179,0.00490266,-0.00374785 -0.00875179,0.00473443,-0.00247 -0.00875179,0.00473443,-0.00377 -0.00875179,0.0045662,-0.00249215 -0.00875179,0.0045662,-0.00374785 -0.00875179,0.00440943,-0.00255708 -0.00875179,0.00440943,-0.00368292 -0.00875179,0.00427481,-0.00266038 -0.00875179,0.00427481,-0.00357962 -0.00875179,0.00417151,-0.002795 -0.00875179,0.00417151,-0.003445 -0.00875179,0.00410658,-0.00295177 -0.00875179,0.00410658,-0.00328823 -0.00875179,0.00408443,-0.00312 -0.00875179,0.00238443,-0.00157 -0.00875179,0.00238443,-0.00467 -0.00890311,-0.00525056,7.99999e-05 -0.00890311,-0.00525056,-0.00062 -0.00890311,-0.00525056,-0.00562 -0.00890311,-0.00525056,-0.00632 -0.00917367,-0.00548989,7.99999e-05 -0.00917367,-0.00548989,-0.00062 -0.00917367,-0.00548989,-0.00562 -0.00917367,-0.00548989,-0.00632 -0.00925179,0.00638443,-0.00207 -0.00925179,0.00638443,-0.00417 -0.00925179,0.00636739,-0.00194059 -0.00925179,0.00636739,-0.00429941 -0.00925179,0.00631744,-0.00182 -0.00925179,0.00631744,-0.00442 -0.00925179,0.00623798,-0.00171645 -0.00925179,0.00623798,-0.00452355 -0.00925179,0.00613443,-0.00163699 -0.00925179,0.00613443,-0.00460301 -0.00925179,0.00601384,-0.00158704 -0.00925179,0.00601384,-0.00465296 -0.00925179,0.00588443,-0.00157 -0.00925179,0.00588443,-0.00467 -0.00925179,0.00538443,-0.00312 -0.00925179,0.00536228,-0.00295177 -0.00925179,0.00536228,-0.00328823 -0.00925179,0.00529735,-0.002795 -0.00925179,0.00529735,-0.003445 -0.00925179,0.00519405,-0.00266038 -0.00925179,0.00519405,-0.00357962 -0.00925179,0.00505943,-0.00255708 -0.00925179,0.00505943,-0.00368292 -0.00925179,0.00490266,-0.00249215 -0.00925179,0.00490266,-0.00374785 -0.00925179,0.00473443,-0.00247 -0.00925179,0.00473443,-0.00377 -0.00925179,0.0045662,-0.00249215 -0.00925179,0.0045662,-0.00374785 -0.00925179,0.00440943,-0.00255708 -0.00925179,0.00440943,-0.00368292 -0.00925179,0.00427481,-0.00266038 -0.00925179,0.00427481,-0.00357962 -0.00925179,0.00417151,-0.002795 -0.00925179,0.00417151,-0.003445 -0.00925179,0.00410658,-0.00295177 -0.00925179,0.00410658,-0.00328823 -0.00925179,0.00408443,-0.00312 -0.00925179,0.00238443,-0.00157 -0.00925179,0.00238443,-0.00467 -0.00937918,-0.00578697,7.99999e-05 -0.00937918,-0.00578697,-0.00062 -0.00937918,-0.00578697,-0.00562 -0.00937918,-0.00578697,-0.00632 -0.0095077,-0.00612457,7.99999e-05 -0.0095077,-0.00612457,-0.00062 -0.0095077,-0.00612457,-0.00562 -0.0095077,-0.00612457,-0.00632 -0.00995179,-0.00791557,7.99999e-05 -0.00995179,-0.00791557,-0.00062 -0.00995179,-0.00791557,-0.00562 -0.00995179,-0.00791557,-0.00632 -0.0104518,0.00238443,7.99999e-05 -0.0104518,0.00238443,-0.00632 -0.0104518,-0.00791557,7.99999e-05 -0.0104518,-0.00791557,-0.00632 -0.0105812,0.00236739,7.99999e-05 -0.0105812,0.00236739,-0.00632 -0.0105812,-0.00789853,7.99999e-05 -0.0105812,-0.00789853,-0.00632 -0.0107018,0.00231744,7.99999e-05 -0.0107018,0.00231744,-0.00632 -0.0107018,-0.00784858,7.99999e-05 -0.0107018,-0.00784858,-0.00632 -0.0108053,0.00223798,7.99999e-05 -0.0108053,0.00223798,-0.00632 -0.0108053,-0.00776912,7.99999e-05 -0.0108053,-0.00776912,-0.00632 -0.0108848,0.00213443,7.99999e-05 -0.0108848,0.00213443,-0.00632 -0.0108848,-0.00766557,7.99999e-05 -0.0108848,-0.00766557,-0.00632 -0.0109348,0.00201384,7.99999e-05 -0.0109348,0.00201384,-0.00632 -0.0109348,-0.00754498,7.99999e-05 -0.0109348,-0.00754498,-0.00632 -0.0109518,0.00188443,7.99999e-05 -0.0109518,0.00188443,-0.00632 -0.0109518,-0.00741557,7.99999e-05 -0.0109518,-0.00741557,-0.00632 
      ]
    }
    coordIndex [
      504 478 552 -1 552 478 526 -1 591 593 590 -1 590 593 592 -1 404 392 314 -1 314 392 382 -1 314 382 370 -1 408 416 444 -1 326 314 362 -1 362 314 370 -1 404 314 412 -1 412 314 564 -1 412 564 420 -1 444 416 508 -1 508 416 428 -1 508 428 512 -1 512 428 436 -1 512 436 556 -1 556 436 448 -1 556 448 560 -1 444 424 408 -1 408 424 396 -1 408 396 400 -1 400 396 374 -1 400 374 388 -1 388 374 348 -1 388 348 378 -1 378 348 342 -1 378 342 366 -1 366 342 330 -1 366 330 358 -1 358 330 326 -1 358 326 354 -1 354 326 362 -1 452 440 564 -1 564 440 432 -1 564 432 420 -1 448 456 560 -1 560 456 464 -1 560 464 564 -1 564 464 460 -1 564 460 452 -1 29 31 69 -1 69 31 71 -1 81 79 41 -1 41 79 39 -1 39 79 77 -1 39 77 37 -1 37 77 75 -1 37 75 35 -1 35 75 73 -1 35 73 33 -1 33 73 71 -1 33 71 31 -1 244 245 26 -1 26 245 27 -1 68 70 28 -1 28 70 30 -1 30 70 72 -1 30 72 32 -1 32 72 74 -1 32 74 34 -1 34 74 76 -1 34 76 36 -1 36 76 78 -1 36 78 38 -1 38 78 80 -1 38 80 40 -1 324 328 325 -1 325 328 329 -1 329 328 340 -1 329 340 341 -1 341 340 346 -1 341 346 347 -1 347 346 372 -1 347 372 373 -1 373 372 394 -1 373 394 395 -1 395 394 422 -1 395 422 423 -1 423 422 442 -1 423 442 443 -1 443 442 506 -1 443 506 507 -1 507 506 510 -1 507 510 511 -1 511 510 554 -1 511 554 555 -1 555 554 558 -1 555 558 559 -1 28 29 68 -1 68 29 69 -1 534 532 515 -1 515 532 530 -1 515 530 514 -1 514 530 528 -1 514 528 529 -1 517 519 521 -1 550 553 551 -1 551 553 552 -1 551 552 549 -1 533 535 524 -1 524 535 526 -1 540 527 542 -1 542 527 553 -1 542 553 544 -1 516 514 531 -1 531 514 529 -1 518 516 533 -1 533 516 531 -1 540 538 527 -1 527 538 536 -1 527 536 525 -1 523 525 534 -1 534 525 536 -1 550 548 553 -1 553 548 546 -1 553 546 544 -1 515 517 534 -1 534 517 521 -1 534 521 523 -1 543 545 552 -1 552 545 547 -1 552 547 549 -1 535 537 526 -1 526 537 539 -1 526 539 552 -1 552 539 541 -1 552 541 543 -1 524 522 533 -1 533 522 520 -1 533 520 518 -1 24 20 25 -1 25 20 21 -1 1 5 0 -1 0 5 4 -1 4 5 9 -1 4 9 8 -1 8 9 13 -1 8 13 12 -1 12 13 17 -1 12 17 16 -1 16 17 21 -1 16 21 20 -1 495 541 493 -1 493 541 539 -1 493 539 491 -1 491 539 537 -1 491 537 489 -1 489 537 535 -1 489 535 487 -1 487 535 533 -1 487 533 485 -1 485 533 531 -1 485 531 483 -1 483 531 529 -1 483 529 481 -1 481 529 528 -1 481 528 480 -1 480 528 530 -1 480 530 482 -1 482 530 532 -1 482 532 484 -1 484 532 534 -1 484 534 486 -1 486 534 536 -1 486 536 488 -1 488 536 538 -1 488 538 490 -1 490 538 540 -1 490 540 492 -1 492 540 542 -1 492 542 494 -1 494 542 544 -1 494 544 496 -1 496 544 546 -1 496 546 498 -1 498 546 548 -1 498 548 500 -1 500 548 550 -1 500 550 502 -1 502 550 551 -1 502 551 503 -1 503 551 549 -1 503 549 501 -1 501 549 547 -1 501 547 499 -1 499 547 545 -1 499 545 497 -1 497 545 543 -1 497 543 495 -1 495 543 541 -1 162 160 163 -1 163 160 161 -1 514 516 466 -1 466 516 468 -1 468 516 518 -1 468 518 470 -1 470 518 520 -1 470 520 472 -1 472 520 522 -1 472 522 474 -1 474 522 524 -1 474 524 476 -1 476 524 526 -1 476 526 478 -1 467 469 515 -1 515 469 517 -1 517 469 471 -1 517 471 519 -1 519 471 473 -1 519 473 521 -1 521 473 475 -1 521 475 523 -1 523 475 477 -1 523 477 525 -1 525 477 479 -1 525 479 527 -1 66 40 106 -1 106 40 80 -1 553 527 505 -1 505 527 479 -1 126 123 122 -1 122 123 119 -1 122 119 118 -1 118 119 115 -1 118 115 114 -1 114 115 113 -1 114 113 112 -1 112 113 117 -1 112 117 116 -1 116 117 121 -1 116 121 120 -1 120 121 125 -1 120 125 124 -1 124 125 129 -1 124 129 128 -1 128 129 133 -1 128 133 132 -1 132 133 137 -1 132 137 136 -1 136 137 141 -1 136 141 140 -1 140 141 145 -1 140 145 144 -1 144 145 149 -1 144 149 148 -1 148 149 153 -1 148 153 152 -1 152 153 157 -1 152 157 156 -1 156 157 159 -1 156 159 158 -1 158 159 155 -1 158 155 154 -1 154 155 151 -1 154 151 150 -1 150 151 147 -1 150 147 146 -1 146 147 143 -1 146 143 142 -1 142 143 139 -1 142 139 138 -1 138 139 135 -1 138 135 134 -1 134 135 131 -1 134 131 130 -1 130 131 127 -1 130 127 126 -1 126 127 123 -1 110 108 111 -1 111 108 109 -1 160 110 161 -1 161 110 111 -1 315 247 314 -1 314 247 249 -1 314 249 293 -1 249 247 248 -1 248 247 246 -1 569 563 568 -1 568 563 562 -1 292 248 313 -1 313 248 246 -1 313 246 312 -1 292 313 293 -1 293 313 563 -1 293 563 314 -1 314 563 564 -1 564 563 569 -1 564 569 565 -1 429 416 417 -1 417 416 408 -1 417 408 409 -1 409 408 400 -1 409 400 401 -1 401 400 388 -1 401 388 389 -1 389 388 378 -1 389 378 379 -1 379 378 366 -1 379 366 367 -1 367 366 358 -1 367 358 359 -1 359 358 354 -1 359 354 355 -1 355 354 362 -1 355 362 363 -1 363 362 370 -1 363 370 371 -1 371 370 382 -1 371 382 383 -1 383 382 392 -1 383 392 393 -1 393 392 404 -1 393 404 405 -1 405 404 412 -1 405 412 413 -1 413 412 420 -1 413 420 421 -1 421 420 432 -1 421 432 433 -1 433 432 440 -1 433 440 441 -1 441 440 452 -1 441 452 453 -1 453 452 460 -1 453 460 461 -1 461 460 464 -1 461 464 465 -1 465 464 456 -1 465 456 457 -1 457 456 448 -1 457 448 449 -1 449 448 436 -1 449 436 437 -1 437 436 428 -1 437 428 429 -1 429 428 416 -1 561 557 560 -1 560 557 556 -1 556 557 513 -1 556 513 512 -1 512 513 509 -1 512 509 508 -1 508 509 445 -1 508 445 444 -1 444 445 425 -1 444 425 424 -1 424 425 397 -1 424 397 396 -1 396 397 375 -1 396 375 374 -1 374 375 349 -1 374 349 348 -1 348 349 343 -1 348 343 342 -1 342 343 331 -1 342 331 330 -1 330 331 327 -1 330 327 326 -1 193 231 191 -1 191 231 229 -1 191 229 189 -1 189 229 227 -1 189 227 187 -1 187 227 225 -1 187 225 185 -1 185 225 223 -1 185 223 183 -1 183 223 221 -1 183 221 181 -1 181 221 219 -1 181 219 179 -1 179 219 218 -1 179 218 178 -1 178 218 220 -1 178 220 180 -1 180 220 222 -1 180 222 182 -1 182 222 224 -1 182 224 184 -1 184 224 226 -1 184 226 186 -1 186 226 228 -1 186 228 188 -1 188 228 230 -1 188 230 190 -1 190 230 232 -1 190 232 192 -1 192 232 234 -1 192 234 194 -1 194 234 236 -1 194 236 196 -1 196 236 238 -1 196 238 198 -1 198 238 240 -1 198 240 200 -1 200 240 241 -1 200 241 201 -1 201 241 239 -1 201 239 199 -1 199 239 237 -1 199 237 197 -1 197 237 235 -1 197 235 195 -1 195 235 233 -1 195 233 193 -1 193 233 231 -1 37 48 39 -1 39 48 50 -1 39 50 41 -1 41 50 52 -1 41 52 54 -1 56 67 54 -1 54 67 41 -1 63 66 65 -1 65 66 67 -1 65 67 64 -1 64 67 62 -1 48 31 46 -1 46 31 29 -1 45 28 47 -1 47 28 30 -1 53 51 40 -1 40 51 49 -1 40 49 38 -1 38 49 47 -1 38 47 36 -1 53 40 55 -1 55 40 66 -1 55 66 57 -1 56 58 67 -1 67 58 60 -1 67 60 62 -1 37 35 48 -1 48 35 33 -1 48 33 31 -1 63 61 66 -1 66 61 59 -1 66 59 57 -1 36 47 34 -1 34 47 30 -1 34 30 32 -1 45 43 28 -1 28 43 42 -1 28 42 29 -1 29 42 44 -1 29 44 46 -1 258 256 294 -1 294 256 254 -1 294 254 252 -1 250 248 292 -1 268 264 272 -1 272 264 260 -1 272 260 282 -1 282 260 258 -1 252 250 294 -1 294 250 292 -1 294 290 258 -1 258 290 284 -1 258 284 282 -1 293 249 295 -1 295 249 251 -1 295 251 291 -1 291 251 253 -1 291 253 285 -1 285 253 255 -1 285 255 283 -1 283 255 257 -1 283 257 273 -1 273 257 259 -1 273 259 269 -1 269 259 261 -1 269 261 265 -1 295 294 293 -1 293 294 292 -1 248 250 249 -1 249 250 251 -1 107 81 67 -1 67 81 41 -1 173 184 175 -1 175 184 186 -1 175 186 177 -1 177 186 188 -1 177 188 190 -1 192 203 190 -1 190 203 177 -1 199 202 201 -1 201 202 203 -1 201 203 200 -1 200 203 198 -1 184 167 182 -1 182 167 165 -1 181 164 183 -1 183 164 166 -1 189 187 176 -1 176 187 185 -1 176 185 174 -1 174 185 183 -1 174 183 172 -1 189 176 191 -1 191 176 202 -1 191 202 193 -1 192 194 203 -1 203 194 196 -1 203 196 198 -1 173 171 184 -1 184 171 169 -1 184 169 167 -1 199 197 202 -1 202 197 195 -1 202 195 193 -1 172 183 170 -1 170 183 166 -1 170 166 168 -1 181 179 164 -1 164 179 178 -1 164 178 165 -1 165 178 180 -1 165 180 182 -1 243 217 203 -1 203 217 177 -1 224 222 205 -1 205 222 220 -1 205 220 204 -1 204 220 218 -1 204 218 219 -1 207 209 211 -1 240 243 241 -1 241 243 242 -1 241 242 239 -1 223 225 214 -1 214 225 216 -1 206 204 221 -1 221 204 219 -1 230 217 232 -1 232 217 243 -1 232 243 234 -1 208 206 223 -1 223 206 221 -1 230 228 217 -1 217 228 226 -1 217 226 215 -1 213 215 224 -1 224 215 226 -1 240 238 243 -1 243 238 236 -1 243 236 234 -1 205 207 224 -1 224 207 211 -1 224 211 213 -1 233 235 242 -1 242 235 237 -1 242 237 239 -1 225 227 216 -1 216 227 229 -1 216 229 242 -1 242 229 231 -1 242 231 233 -1 214 212 223 -1 223 212 210 -1 223 210 208 -1 202 176 242 -1 242 176 216 -1 164 165 204 -1 204 165 205 -1 0 2 1 -1 1 2 3 -1 466 467 514 -1 514 467 515 -1 384 350 385 -1 385 350 351 -1 327 315 326 -1 326 315 314 -1 568 572 569 -1 569 572 573 -1 573 572 576 -1 573 576 577 -1 577 576 580 -1 577 580 581 -1 581 580 584 -1 581 584 585 -1 589 585 588 -1 588 585 584 -1 593 589 592 -1 592 589 588 -1 312 324 313 -1 313 324 325 -1 2 6 3 -1 3 6 7 -1 7 6 10 -1 7 10 11 -1 11 10 14 -1 11 14 15 -1 15 14 18 -1 15 18 19 -1 19 18 22 -1 19 22 23 -1 23 22 26 -1 23 26 27 -1 202 162 203 -1 203 162 163 -1 203 163 243 -1 243 163 263 -1 243 263 242 -1 242 263 262 -1 242 262 202 -1 202 262 162 -1 244 246 245 -1 245 246 247 -1 88 86 69 -1 69 86 84 -1 69 84 68 -1 68 84 82 -1 68 82 83 -1 71 73 75 -1 94 81 96 -1 96 81 107 -1 96 107 98 -1 104 107 105 -1 105 107 106 -1 105 106 103 -1 87 89 78 -1 78 89 80 -1 70 68 85 -1 85 68 83 -1 72 70 87 -1 87 70 85 -1 94 92 81 -1 81 92 90 -1 81 90 79 -1 77 79 88 -1 88 79 90 -1 104 102 107 -1 107 102 100 -1 107 100 98 -1 69 71 88 -1 88 71 75 -1 88 75 77 -1 97 99 106 -1 106 99 101 -1 106 101 103 -1 89 91 80 -1 80 91 93 -1 80 93 106 -1 106 93 95 -1 106 95 97 -1 78 76 87 -1 87 76 74 -1 87 74 72 -1 558 562 559 -1 559 562 563 -1 165 167 205 -1 205 167 207 -1 217 215 177 -1 177 215 175 -1 175 215 213 -1 175 213 173 -1 173 213 211 -1 173 211 171 -1 171 211 209 -1 171 209 169 -1 169 209 207 -1 169 207 167 -1 204 206 164 -1 164 206 166 -1 166 206 208 -1 166 208 168 -1 168 208 210 -1 168 210 170 -1 170 210 212 -1 170 212 172 -1 172 212 214 -1 172 214 174 -1 174 214 216 -1 174 216 176 -1 504 384 505 -1 505 384 385 -1 505 385 553 -1 553 385 567 -1 553 567 552 -1 552 567 566 -1 552 566 504 -1 504 566 384 -1 67 25 107 -1 107 25 109 -1 107 109 106 -1 106 109 108 -1 106 108 66 -1 66 108 24 -1 66 24 67 -1 67 24 25 -1 350 266 351 -1 351 266 267 -1 369 381 313 -1 313 381 391 -1 313 391 403 -1 407 399 373 -1 559 563 459 -1 459 563 451 -1 419 563 411 -1 411 563 313 -1 411 313 403 -1 373 399 347 -1 347 399 387 -1 347 387 341 -1 341 387 377 -1 341 377 329 -1 329 377 365 -1 329 365 325 -1 373 395 407 -1 407 395 423 -1 407 423 415 -1 415 423 443 -1 415 443 427 -1 427 443 507 -1 427 507 435 -1 435 507 511 -1 435 511 447 -1 447 511 555 -1 447 555 455 -1 455 555 559 -1 455 559 463 -1 463 559 459 -1 419 431 563 -1 563 431 439 -1 563 439 451 -1 365 357 325 -1 325 357 353 -1 325 353 313 -1 313 353 361 -1 313 361 369 -1 296 287 286 -1 286 287 279 -1 286 279 278 -1 278 279 275 -1 278 275 274 -1 274 275 271 -1 274 271 270 -1 270 271 277 -1 270 277 276 -1 276 277 281 -1 276 281 280 -1 280 281 289 -1 280 289 288 -1 288 289 299 -1 288 299 298 -1 298 299 303 -1 298 303 302 -1 302 303 307 -1 302 307 306 -1 306 307 311 -1 306 311 310 -1 310 311 319 -1 310 319 318 -1 318 319 323 -1 318 323 322 -1 322 323 335 -1 322 335 334 -1 334 335 339 -1 334 339 338 -1 338 339 345 -1 338 345 344 -1 344 345 337 -1 344 337 336 -1 336 337 333 -1 336 333 332 -1 332 333 321 -1 332 321 320 -1 320 321 317 -1 320 317 316 -1 316 317 309 -1 316 309 308 -1 308 309 305 -1 308 305 304 -1 304 305 301 -1 304 301 300 -1 300 301 297 -1 300 297 296 -1 296 297 287 -1 360 446 368 -1 368 446 454 -1 368 454 462 -1 380 368 462 -1 414 426 434 -1 450 462 458 -1 462 418 410 -1 406 414 446 -1 446 414 434 -1 410 402 462 -1 462 402 390 -1 462 390 380 -1 418 462 430 -1 430 462 450 -1 430 450 438 -1 360 352 446 -1 446 352 356 -1 446 356 364 -1 398 406 386 -1 386 406 446 -1 386 446 376 -1 376 446 364 -1 57 95 55 -1 55 95 93 -1 55 93 53 -1 53 93 91 -1 53 91 51 -1 51 91 89 -1 51 89 49 -1 49 89 87 -1 49 87 47 -1 47 87 85 -1 47 85 45 -1 45 85 83 -1 45 83 43 -1 43 83 82 -1 43 82 42 -1 42 82 84 -1 42 84 44 -1 44 84 86 -1 44 86 46 -1 46 86 88 -1 46 88 48 -1 48 88 90 -1 48 90 50 -1 50 90 92 -1 50 92 52 -1 52 92 94 -1 52 94 54 -1 54 94 96 -1 54 96 56 -1 56 96 98 -1 56 98 58 -1 58 98 100 -1 58 100 60 -1 60 100 102 -1 60 102 62 -1 62 102 104 -1 62 104 64 -1 64 104 105 -1 64 105 65 -1 65 105 103 -1 65 103 63 -1 63 103 101 -1 63 101 61 -1 61 101 99 -1 61 99 59 -1 59 99 97 -1 59 97 57 -1 57 97 95 -1 266 262 267 -1 267 262 263 -1 590 586 591 -1 591 586 587 -1 587 586 582 -1 587 582 583 -1 583 582 578 -1 583 578 579 -1 579 578 574 -1 579 574 575 -1 571 575 570 -1 570 575 574 -1 567 571 566 -1 566 571 570 -1 475 486 477 -1 477 486 488 -1 477 488 479 -1 479 488 490 -1 479 490 492 -1 494 505 492 -1 492 505 479 -1 501 504 503 -1 503 504 505 -1 503 505 502 -1 502 505 500 -1 486 469 484 -1 484 469 467 -1 478 504 493 -1 493 504 495 -1 483 466 485 -1 485 466 468 -1 478 487 476 -1 476 487 485 -1 476 485 474 -1 493 491 478 -1 478 491 489 -1 478 489 487 -1 494 496 505 -1 505 496 498 -1 505 498 500 -1 475 473 486 -1 486 473 471 -1 486 471 469 -1 501 499 504 -1 504 499 497 -1 504 497 495 -1 474 485 472 -1 472 485 468 -1 472 468 470 -1 483 481 466 -1 466 481 480 -1 466 480 467 -1 467 480 482 -1 467 482 484 -1 308 304 262 -1 262 304 300 -1 262 300 296 -1 160 142 138 -1 320 316 350 -1 262 296 286 -1 158 154 270 -1 108 118 114 -1 562 558 568 -1 568 558 592 -1 568 592 572 -1 572 592 588 -1 572 588 576 -1 576 588 584 -1 576 584 580 -1 110 160 134 -1 134 160 138 -1 20 24 16 -1 16 24 12 -1 310 318 394 -1 394 318 422 -1 136 244 132 -1 132 244 26 -1 384 590 338 -1 338 590 592 -1 338 592 334 -1 334 592 322 -1 246 244 288 -1 288 244 280 -1 328 324 306 -1 306 324 312 -1 306 312 302 -1 302 312 246 -1 302 246 298 -1 298 246 288 -1 116 120 2 -1 2 120 124 -1 2 124 6 -1 578 582 574 -1 574 582 586 -1 574 586 570 -1 570 586 590 -1 570 590 566 -1 566 590 384 -1 142 160 146 -1 146 160 162 -1 146 162 150 -1 332 320 384 -1 384 320 350 -1 14 10 18 -1 18 10 22 -1 262 286 162 -1 162 286 278 -1 162 278 274 -1 158 270 156 -1 156 270 276 -1 156 276 152 -1 558 554 592 -1 592 554 510 -1 592 510 322 -1 322 510 506 -1 322 506 318 -1 318 506 442 -1 318 442 422 -1 0 4 24 -1 24 4 8 -1 24 8 12 -1 134 130 110 -1 110 130 126 -1 110 126 108 -1 108 126 122 -1 108 122 118 -1 148 152 244 -1 244 152 276 -1 244 276 280 -1 394 372 310 -1 310 372 346 -1 310 346 306 -1 306 346 340 -1 306 340 328 -1 116 2 112 -1 112 2 0 -1 112 0 114 -1 114 0 24 -1 114 24 108 -1 136 140 244 -1 244 140 144 -1 244 144 148 -1 150 162 154 -1 154 162 274 -1 154 274 270 -1 308 262 316 -1 316 262 266 -1 316 266 350 -1 10 6 22 -1 22 6 124 -1 22 124 26 -1 26 124 128 -1 26 128 132 -1 338 344 384 -1 384 344 336 -1 384 336 332 -1 295 291 294 -1 294 291 290 -1 250 252 251 -1 251 252 253 -1 253 252 254 -1 253 254 255 -1 255 254 256 -1 255 256 257 -1 257 256 258 -1 257 258 259 -1 259 258 260 -1 259 260 261 -1 261 260 264 -1 261 264 265 -1 265 264 268 -1 265 268 269 -1 269 268 272 -1 269 272 273 -1 273 272 282 -1 273 282 283 -1 283 282 284 -1 283 284 285 -1 285 284 290 -1 285 290 291 -1 363 371 355 -1 355 371 393 -1 355 393 405 -1 441 453 355 -1 383 393 371 -1 355 405 413 -1 389 379 401 -1 401 379 367 -1 401 367 409 -1 413 421 355 -1 355 421 433 -1 355 433 441 -1 461 367 453 -1 453 367 359 -1 453 359 355 -1 417 409 429 -1 429 409 367 -1 429 367 437 -1 437 367 449 -1 461 465 367 -1 367 465 457 -1 367 457 449 -1 565 561 564 -1 564 561 560 -1 406 415 414 -1 414 415 427 -1 414 427 426 -1 426 427 435 -1 426 435 434 -1 434 435 447 -1 434 447 446 -1 446 447 455 -1 446 455 454 -1 454 455 463 -1 454 463 462 -1 462 463 459 -1 462 459 458 -1 458 459 451 -1 458 451 450 -1 450 451 439 -1 450 439 438 -1 438 439 431 -1 438 431 430 -1 430 431 419 -1 430 419 418 -1 418 419 411 -1 418 411 410 -1 410 411 403 -1 410 403 402 -1 402 403 391 -1 402 391 390 -1 390 391 381 -1 390 381 380 -1 380 381 369 -1 380 369 368 -1 368 369 361 -1 368 361 360 -1 360 361 353 -1 360 353 352 -1 352 353 357 -1 352 357 356 -1 356 357 365 -1 356 365 364 -1 364 365 377 -1 364 377 376 -1 376 377 387 -1 376 387 386 -1 386 387 399 -1 386 399 398 -1 398 399 407 -1 398 407 406 -1 406 407 415 -1 275 279 263 -1 263 279 287 -1 263 287 267 -1 267 287 297 -1 267 297 301 -1 589 593 561 -1 151 155 263 -1 263 271 275 -1 267 301 305 -1 581 585 577 -1 577 585 573 -1 585 589 573 -1 573 589 561 -1 573 561 569 -1 569 561 565 -1 127 111 123 -1 123 111 109 -1 123 109 119 -1 119 109 115 -1 311 307 343 -1 343 307 331 -1 343 349 311 -1 311 349 375 -1 311 375 319 -1 319 375 397 -1 579 575 583 -1 583 575 571 -1 583 571 587 -1 587 571 567 -1 321 385 317 -1 317 385 351 -1 277 159 281 -1 281 159 289 -1 151 263 147 -1 147 263 163 -1 147 163 143 -1 133 27 137 -1 137 27 245 -1 137 245 141 -1 23 27 129 -1 129 27 133 -1 15 19 11 -1 11 19 7 -1 13 9 17 -1 17 9 5 -1 17 5 21 -1 21 5 1 -1 21 1 25 -1 25 1 3 -1 25 3 109 -1 267 305 351 -1 351 305 309 -1 351 309 317 -1 323 513 593 -1 593 513 557 -1 593 557 561 -1 397 425 319 -1 319 425 445 -1 319 445 323 -1 323 445 509 -1 323 509 513 -1 159 157 245 -1 245 157 153 -1 337 345 591 -1 591 345 339 -1 591 339 593 -1 593 339 335 -1 593 335 323 -1 19 23 7 -1 7 23 129 -1 7 129 3 -1 3 129 125 -1 303 315 307 -1 307 315 327 -1 307 327 331 -1 153 149 245 -1 245 149 145 -1 245 145 141 -1 125 121 3 -1 3 121 117 -1 3 117 109 -1 109 117 113 -1 109 113 115 -1 131 163 127 -1 127 163 161 -1 127 161 111 -1 131 135 163 -1 163 135 139 -1 163 139 143 -1 321 333 385 -1 385 333 337 -1 385 337 567 -1 567 337 591 -1 567 591 587 -1 271 263 277 -1 277 263 155 -1 277 155 159 -1 247 315 245 -1 245 315 303 -1 245 303 159 -1 159 303 299 -1 159 299 289 -1 
    ]
  }
}
